CONTADOR/simulation/qsim/contador.msim.vcd
$comment
	File created using the following command:
		vcd file contador.msim.vcd -direction
$end
$date
	Sun May 05 22:16:02 2024
$end
$version
	ModelSim Version 10.1d
$end
$timescale
	1ps
$end
$scope module contador_vlg_vec_tst $end
$var reg 4 ! address [3:0] $end
$var reg 1 " back_sensor $end
$var reg 1 # clock $end
$var wire 1 $ vehiculos [6] $end
$var wire 1 % vehiculos [5] $end
$var wire 1 & vehiculos [4] $end
$var wire 1 ' vehiculos [3] $end
$var wire 1 ( vehiculos [2] $end
$var wire 1 ) vehiculos [1] $end
$var wire 1 * vehiculos [0] $end
$scope module i1 $end
$var wire 1 + gnd $end
$var wire 1 , vcc $end
$var wire 1 - unknown $end
$var tri1 1 . devclrn $end
$var tri1 1 / devpor $end
$var tri1 1 0 devoe $end
$var wire 1 1 address[3]~input_o $end
$var wire 1 2 vehiculos[0]~output_o $end
$var wire 1 3 vehiculos[1]~output_o $end
$var wire 1 4 vehiculos[2]~output_o $end
$var wire 1 5 vehiculos[3]~output_o $end
$var wire 1 6 vehiculos[4]~output_o $end
$var wire 1 7 vehiculos[5]~output_o $end
$var wire 1 8 vehiculos[6]~output_o $end
$var wire 1 9 clock~input_o $end
$var wire 1 : clock~inputclkctrl_outclk $end
$var wire 1 ; address[2]~input_o $end
$var wire 1 < address[0]~input_o $end
$var wire 1 = vehiculo_count[0]~7_combout $end
$var wire 1 > Add1~0_combout $end
$var wire 1 ? Add1~1 $end
$var wire 1 @ Add1~2_combout $end
$var wire 1 A Add1~3 $end
$var wire 1 B Add1~4_combout $end
$var wire 1 C Add1~5 $end
$var wire 1 D Add1~6_combout $end
$var wire 1 E Equal0~0_combout $end
$var wire 1 F Add1~7 $end
$var wire 1 G Add1~8_combout $end
$var wire 1 H Add1~9 $end
$var wire 1 I Add1~10_combout $end
$var wire 1 J Add1~11 $end
$var wire 1 K Add1~12_combout $end
$var wire 1 L tiempo~6_combout $end
$var wire 1 M Add1~13 $end
$var wire 1 N Add1~14_combout $end
$var wire 1 O Add1~15 $end
$var wire 1 P Add1~16_combout $end
$var wire 1 Q Add1~17 $end
$var wire 1 R Add1~18_combout $end
$var wire 1 S tiempo~5_combout $end
$var wire 1 T Add1~19 $end
$var wire 1 U Add1~20_combout $end
$var wire 1 V Add1~21 $end
$var wire 1 W Add1~22_combout $end
$var wire 1 X Equal0~3_combout $end
$var wire 1 Y Equal0~4_combout $end
$var wire 1 Z Add1~23 $end
$var wire 1 [ Add1~24_combout $end
$var wire 1 \ Add1~25 $end
$var wire 1 ] Add1~26_combout $end
$var wire 1 ^ Add1~27 $end
$var wire 1 _ Add1~28_combout $end
$var wire 1 ` tiempo~4_combout $end
$var wire 1 a Add1~29 $end
$var wire 1 b Add1~30_combout $end
$var wire 1 c Equal0~2_combout $end
$var wire 1 d Add1~31 $end
$var wire 1 e Add1~32_combout $end
$var wire 1 f tiempo~3_combout $end
$var wire 1 g Add1~33 $end
$var wire 1 h Add1~34_combout $end
$var wire 1 i tiempo~2_combout $end
$var wire 1 j Add1~35 $end
$var wire 1 k Add1~36_combout $end
$var wire 1 l tiempo~1_combout $end
$var wire 1 m Add1~37 $end
$var wire 1 n Add1~38_combout $end
$var wire 1 o tiempo~0_combout $end
$var wire 1 p Equal0~1_combout $end
$var wire 1 q Equal0~5_combout $end
$var wire 1 r Equal0~6_combout $end
$var wire 1 s back_sensor~input_o $end
$var wire 1 t vehiculo_count[0]~9_combout $end
$var wire 1 u vehiculo_count[0]~8 $end
$var wire 1 v vehiculo_count[1]~10_combout $end
$var wire 1 w vehiculo_count[1]~11 $end
$var wire 1 x vehiculo_count[2]~12_combout $end
$var wire 1 y vehiculo_count[2]~13 $end
$var wire 1 z vehiculo_count[3]~14_combout $end
$var wire 1 { vehiculo_count[3]~15 $end
$var wire 1 | vehiculo_count[4]~16_combout $end
$var wire 1 } vehiculo_count[4]~17 $end
$var wire 1 ~ vehiculo_count[5]~18_combout $end
$var wire 1 !! vehiculo_count[5]~19 $end
$var wire 1 "! vehiculo_count[6]~20_combout $end
$var wire 1 #! RW~52feeder_combout $end
$var wire 1 $! address[1]~input_o $end
$var wire 1 %! RW~99_combout $end
$var wire 1 &! RW~52_q $end
$var wire 1 '! RW~102_combout $end
$var wire 1 (! RW~66_q $end
$var wire 1 )! RW~101_combout $end
$var wire 1 *! RW~45_q $end
$var wire 1 +! RW~59feeder_combout $end
$var wire 1 ,! RW~100_combout $end
$var wire 1 -! RW~59_q $end
$var wire 1 .! RW~87_combout $end
$var wire 1 /! RW~88_combout $end
$var wire 1 0! RW~51feeder_combout $end
$var wire 1 1! RW~51_q $end
$var wire 1 2! RW~65_q $end
$var wire 1 3! RW~44_q $end
$var wire 1 4! RW~58feeder_combout $end
$var wire 1 5! RW~58_q $end
$var wire 1 6! RW~89_combout $end
$var wire 1 7! RW~90_combout $end
$var wire 1 8! RW~31feeder_combout $end
$var wire 1 9! RW~103_combout $end
$var wire 1 :! RW~31_q $end
$var wire 1 ;! RW~106_combout $end
$var wire 1 <! RW~38_q $end
$var wire 1 =! RW~105_combout $end
$var wire 1 >! RW~17_q $end
$var wire 1 ?! RW~24feeder_combout $end
$var wire 1 @! RW~104_combout $end
$var wire 1 A! RW~24_q $end
$var wire 1 B! RW~91_combout $end
$var wire 1 C! RW~92_combout $end
$var wire 1 D! Mux4~0_combout $end
$var wire 1 E! RW~30feeder_combout $end
$var wire 1 F! RW~30_q $end
$var wire 1 G! RW~37_q $end
$var wire 1 H! RW~16_q $end
$var wire 1 I! RW~23feeder_combout $end
$var wire 1 J! RW~23_q $end
$var wire 1 K! RW~93_combout $end
$var wire 1 L! RW~94_combout $end
$var wire 1 M! RW~29feeder_combout $end
$var wire 1 N! RW~29_q $end
$var wire 1 O! RW~36_q $end
$var wire 1 P! RW~15_q $end
$var wire 1 Q! RW~22feeder_combout $end
$var wire 1 R! RW~22_q $end
$var wire 1 S! RW~95_combout $end
$var wire 1 T! RW~96_combout $end
$var wire 1 U! RW~50feeder_combout $end
$var wire 1 V! RW~50_q $end
$var wire 1 W! RW~64_q $end
$var wire 1 X! RW~43_q $end
$var wire 1 Y! RW~57feeder_combout $end
$var wire 1 Z! RW~57_q $end
$var wire 1 [! RW~97_combout $end
$var wire 1 \! RW~98_combout $end
$var wire 1 ]! Mux4~1_combout $end
$var wire 1 ^! RW~13_q $end
$var wire 1 _! RW~20feeder_combout $end
$var wire 1 `! RW~20_q $end
$var wire 1 a! RW~79_combout $end
$var wire 1 b! RW~27_q $end
$var wire 1 c! RW~34feeder_combout $end
$var wire 1 d! RW~34_q $end
$var wire 1 e! RW~80_combout $end
$var wire 1 f! RW~62feeder_combout $end
$var wire 1 g! RW~62_q $end
$var wire 1 h! RW~48_q $end
$var wire 1 i! RW~41_q $end
$var wire 1 j! RW~55feeder_combout $end
$var wire 1 k! RW~55_q $end
$var wire 1 l! RW~77_combout $end
$var wire 1 m! RW~78_combout $end
$var wire 1 n! RW~81_combout $end
$var wire 1 o! RW~26feeder_combout $end
$var wire 1 p! RW~26_q $end
$var wire 1 q! RW~33_q $end
$var wire 1 r! RW~12_q $end
$var wire 1 s! RW~19feeder_combout $end
$var wire 1 t! RW~19_q $end
$var wire 1 u! RW~74_combout $end
$var wire 1 v! RW~75_combout $end
$var wire 1 w! RW~47feeder_combout $end
$var wire 1 x! RW~47_q $end
$var wire 1 y! RW~61_q $end
$var wire 1 z! RW~40_q $end
$var wire 1 {! RW~54feeder_combout $end
$var wire 1 |! RW~54_q $end
$var wire 1 }! RW~72_combout $end
$var wire 1 ~! RW~73_combout $end
$var wire 1 !" RW~76_combout $end
$var wire 1 "" RW~28feeder_combout $end
$var wire 1 #" RW~28_q $end
$var wire 1 $" RW~35_q $end
$var wire 1 %" RW~14_q $end
$var wire 1 &" RW~21feeder_combout $end
$var wire 1 '" RW~21_q $end
$var wire 1 (" RW~84_combout $end
$var wire 1 )" RW~85_combout $end
$var wire 1 *" RW~49feeder_combout $end
$var wire 1 +" RW~49_q $end
$var wire 1 ," RW~63_q $end
$var wire 1 -" RW~42_q $end
$var wire 1 ." RW~56feeder_combout $end
$var wire 1 /" RW~56_q $end
$var wire 1 0" RW~82_combout $end
$var wire 1 1" RW~83_combout $end
$var wire 1 2" RW~86_combout $end
$var wire 1 3" RW~46feeder_combout $end
$var wire 1 4" RW~46_q $end
$var wire 1 5" RW~60_q $end
$var wire 1 6" RW~39_q $end
$var wire 1 7" RW~53feeder_combout $end
$var wire 1 8" RW~53_q $end
$var wire 1 9" RW~67_combout $end
$var wire 1 :" RW~68_combout $end
$var wire 1 ;" RW~32feeder_combout $end
$var wire 1 <" RW~32_q $end
$var wire 1 =" RW~25_q $end
$var wire 1 >" RW~11_q $end
$var wire 1 ?" RW~18feeder_combout $end
$var wire 1 @" RW~18_q $end
$var wire 1 A" RW~69_combout $end
$var wire 1 B" RW~70_combout $end
$var wire 1 C" RW~71_combout $end
$var wire 1 D" Mux6~0_combout $end
$var wire 1 E" Mux6~1_combout $end
$var wire 1 F" Mux5~0_combout $end
$var wire 1 G" Mux5~1_combout $end
$var wire 1 H" Mux4~2_combout $end
$var wire 1 I" Mux4~3_combout $end
$var wire 1 J" Mux3~0_combout $end
$var wire 1 K" Mux3~1_combout $end
$var wire 1 L" Mux2~0_combout $end
$var wire 1 M" Mux2~1_combout $end
$var wire 1 N" Mux1~0_combout $end
$var wire 1 O" Mux1~1_combout $end
$var wire 1 P" Mux0~0_combout $end
$var wire 1 Q" Mux0~1_combout $end
$var wire 1 R" tiempo [19] $end
$var wire 1 S" tiempo [18] $end
$var wire 1 T" tiempo [17] $end
$var wire 1 U" tiempo [16] $end
$var wire 1 V" tiempo [15] $end
$var wire 1 W" tiempo [14] $end
$var wire 1 X" tiempo [13] $end
$var wire 1 Y" tiempo [12] $end
$var wire 1 Z" tiempo [11] $end
$var wire 1 [" tiempo [10] $end
$var wire 1 \" tiempo [9] $end
$var wire 1 ]" tiempo [8] $end
$var wire 1 ^" tiempo [7] $end
$var wire 1 _" tiempo [6] $end
$var wire 1 `" tiempo [5] $end
$var wire 1 a" tiempo [4] $end
$var wire 1 b" tiempo [3] $end
$var wire 1 c" tiempo [2] $end
$var wire 1 d" tiempo [1] $end
$var wire 1 e" tiempo [0] $end
$var wire 1 f" display [6] $end
$var wire 1 g" display [5] $end
$var wire 1 h" display [4] $end
$var wire 1 i" display [3] $end
$var wire 1 j" display [2] $end
$var wire 1 k" display [1] $end
$var wire 1 l" display [0] $end
$var wire 1 m" vehiculo_count [6] $end
$var wire 1 n" vehiculo_count [5] $end
$var wire 1 o" vehiculo_count [4] $end
$var wire 1 p" vehiculo_count [3] $end
$var wire 1 q" vehiculo_count [2] $end
$var wire 1 r" vehiculo_count [1] $end
$var wire 1 s" vehiculo_count [0] $end
$upscope $end
$upscope $end
$enddefinitions $end
#0
$dumpvars
b100 !
1"
0#
0*
0)
0(
0'
0&
0%
0$
0+
1,
x-
1.
1/
10
01
02
03
04
05
06
07
08
09
0:
1;
0<
1=
1>
0?
0@
1A
0B
0C
0D
0E
1F
0G
0H
0I
1J
0K
0L
0M
0N
1O
0P
0Q
0R
0S
1T
0U
0V
0W
0X
0Y
1Z
0[
0\
0]
1^
0_
0`
0a
0b
0c
1d
0e
0f
0g
0h
0i
1j
0k
0l
0m
0n
0o
0p
0q
0r
1s
1t
0u
0v
1w
0x
0y
0z
1{
0|
0}
0~
1!!
0"!
0#!
0$!
0%!
0&!
0'!
0(!
1)!
0*!
0+!
0,!
0-!
0.!
0/!
00!
01!
02!
03!
04!
05!
06!
07!
08!
09!
0:!
0;!
0<!
0=!
0>!
0?!
0@!
0A!
0B!
0C!
1D!
0E!
0F!
0G!
0H!
0I!
0J!
0K!
0L!
0M!
0N!
0O!
0P!
0Q!
0R!
0S!
0T!
0U!
0V!
0W!
0X!
0Y!
0Z!
0[!
0\!
1]!
0^!
0_!
0`!
0a!
0b!
0c!
0d!
0e!
0f!
0g!
0h!
0i!
0j!
0k!
0l!
0m!
0n!
0o!
0p!
0q!
0r!
0s!
0t!
0u!
0v!
0w!
0x!
0y!
0z!
0{!
0|!
0}!
0~!
0!"
0""
0#"
0$"
0%"
0&"
0'"
0("
0)"
0*"
0+"
0,"
0-"
0."
0/"
00"
01"
02"
03"
04"
05"
06"
07"
08"
09"
0:"
0;"
0<"
0="
0>"
0?"
0@"
0A"
0B"
0C"
0D"
0E"
0F"
0G"
0H"
0I"
0J"
0K"
0L"
0M"
0N"
0O"
0P"
1Q"
0e"
0d"
0c"
0b"
0a"
0`"
0_"
0^"
0]"
0\"
0["
0Z"
0Y"
0X"
0W"
0V"
0U"
0T"
0S"
0R"
0l"
0k"
0j"
0i"
0h"
0g"
0f"
0s"
0r"
0q"
0p"
0o"
0n"
0m"
$end
#15000
1#
19
1:
1s"
1e"
1f"
1?"
1;"
17"
13"
1u
0=
1?
0>
18
1$
1v
1@
#30000
0#
09
0:
#45000
1#
19
1:
16"
1r"
0s"
1d"
0e"
19"
1{!
1w!
1s!
1o!
0w
0v
0?"
0;"
07"
03"
0u
1=
0A
0@
0?
1>
1:"
1x
1w
1v
1B
1A
1@
1C"
0x
0B
1N"
1L"
1J"
1D"
1O"
1M"
1K"
1E"
#60000
0#
09
0:
#75000
1#
19
1:
06"
1z!
1s"
1e"
1g"
1h"
1i"
1l"
09"
1}!
1?"
1;"
17"
13"
1u
0=
1?
0>
17
16
15
12
1%
1&
1'
1*
0:"
1~!
0w
0v
0A
0@
0C"
1!"
1x
1B
1P"
0L"
0J"
1H"
0D"
0Q"
0M"
0K"
1I"
0E"
#90000
0#
09
0:
#105000
1#
19
1:
16"
1q"
0r"
0s"
1c"
0d"
0e"
0f"
0h"
0i"
1j"
0l"
19"
1j!
1f!
1c!
1_!
1y
0x
0{!
0w!
0s!
0o!
1w
1v
0?"
0;"
07"
03"
0u
1=
1C
0B
1A
1@
0?
1>
08
06
05
14
02
0$
0&
0'
1(
0*
1:"
1z
0y
1x
0v
1D
0C
1B
0@
1C"
0z
0D
1L"
0H"
1M"
0I"
#120000
0#
09
0:
#135000
1#
19
1:
06"
0z!
1i!
1s"
1e"
1h"
0j"
09"
0}!
1l!
1?"
1;"
17"
13"
1u
0=
1?
0>
16
04
1&
0(
0:"
0~!
1m!
1v
1@
0C"
0!"
1n!
0N"
1J"
1D"
0O"
1K"
1E"
#150000
0#
09
0:
#165000
1#
19
1:
16"
1r"
0s"
1d"
0e"
0g"
1i"
1l"
19"
1{!
1w!
1s!
1o!
0w
0v
0?"
0;"
07"
03"
0u
1=
0A
0@
0?
1>
07
15
12
0%
1'
1*
1:"
1y
0x
1w
1v
1C
0B
1A
1@
1C"
1z
0y
1x
1D
0C
1B
0J"
1F"
0D"
0z
0D
0K"
1G"
0E"
#180000
0#
09
0:
#195000
1#
19
1:
06"
1z!
1s"
1e"
0i"
1k"
0l"
09"
1}!
1?"
1;"
17"
13"
1u
0=
1?
0>
05
13
02
0'
1)
0*
0:"
1~!
0w
0v
0A
0@
0C"
1!"
1y
0x
1C
0B
0L"
1H"
1z
1D
0M"
#210000
0#
09
0:
#225000
1#
19
1:
16"
1p"
0q"
0r"
0s"
1b"
0c"
0d"
0e"
0h"
19"
1."
1*"
1&"
1""
0{
0z
0j!
0f!
0c!
0_!
0y
1x
0{!
0w!
0s!
0o!
1w
1v
0?"
0;"
07"
03"
0u
1=
0F
0D
0C
1B
1A
1@
0?
1>
06
0&
1:"
1|
1{
1z
0x
0v
1G
1F
1D
0B
0@
1C"
0|
0G
0P"
1N"
1L"
1J"
0H"
0F"
1Q"
1O"
1M"
1K"
0G"
#230000
0"
0s
0)!
0t
#240000
0#
09
0:
#255000
1#
19
1:
1e"
1f"
1g"
1h"
1i"
0k"
1?
0>
18
17
16
15
03
1$
1%
1&
1'
0)
1@
#270000
0#
09
0:
#285000
1#
19
1:
1d"
0e"
0A
0@
0?
1>
1B
1A
1@
0B
#300000
0#
09
0:
#315000
1#
19
1:
1e"
1?
0>
0A
0@
1B
#330000
0#
09
0:
#345000
1#
19
1:
1c"
0d"
0e"
1C
0B
1A
1@
0?
1>
0F
0D
0C
1B
0@
1G
1F
1D
0G
#360000
0#
09
0:
#375000
1#
19
1:
1e"
1?
0>
1@
#390000
0#
09
0:
#405000
1#
19
1:
1d"
0e"
0A
0@
0?
1>
1C
0B
1A
1@
0F
0D
0C
1B
1G
1F
1D
0G
#420000
0#
09
0:
#435000
1#
19
1:
1e"
1E
1?
0>
0A
0@
1C
0B
0F
0D
1G
#450000
0#
09
0:
#465000
1#
19
1:
1a"
0b"
0c"
0d"
0e"
1H
0G
0E
1F
1D
0C
1B
1A
1@
0?
1>
1I
0H
1G
0D
0B
0@
0I
#480000
0#
09
0:
#495000
1#
19
1:
1e"
1?
0>
1@
#510000
0#
09
0:
#525000
1#
19
1:
1d"
0e"
0A
0@
0?
1>
1B
1A
1@
0B
#540000
0#
09
0:
#555000
1#
19
1:
1e"
1?
0>
0A
0@
1B
#570000
0#
09
0:
#585000
1#
19
1:
1c"
0d"
0e"
1C
0B
1A
1@
0?
1>
1D
0C
1B
0@
0D
#600000
0#
09
0:
#615000
1#
19
1:
1e"
1?
0>
1@
#630000
0#
09
0:
#645000
1#
19
1:
1d"
0e"
0A
0@
0?
1>
1C
0B
1A
1@
1D
0C
1B
0D
#660000
0#
09
0:
#675000
1#
19
1:
1e"
1?
0>
0A
0@
1C
0B
1D
#690000
0#
09
0:
#705000
1#
19
1:
1b"
0c"
0d"
0e"
0F
0D
0C
1B
1A
1@
0?
1>
1H
0G
1F
1D
0B
0@
1I
0H
1G
0I
#720000
0#
09
0:
#735000
1#
19
1:
1e"
1?
0>
1@
#750000
0#
09
0:
#765000
1#
19
1:
1d"
0e"
0A
0@
0?
1>
1B
1A
1@
0B
#780000
0#
09
0:
#795000
1#
19
1:
1e"
1?
0>
0A
0@
1B
#810000
0#
09
0:
#825000
1#
19
1:
1c"
0d"
0e"
1C
0B
1A
1@
0?
1>
0F
0D
0C
1B
0@
1H
0G
1F
1D
1I
0H
1G
0I
#840000
0#
09
0:
#855000
1#
19
1:
1e"
1?
0>
1@
#870000
0#
09
0:
#885000
1#
19
1:
1d"
0e"
0A
0@
0?
1>
1C
0B
1A
1@
0F
0D
0C
1B
1H
0G
1F
1D
1I
0H
1G
0I
#900000
0#
09
0:
#915000
1#
19
1:
1e"
1E
1?
0>
0A
0@
1C
0B
0F
0D
1H
0G
1I
#930000
0#
09
0:
#945000
1#
19
1:
1`"
0a"
0b"
0c"
0d"
0e"
0J
0I
0H
1G
0E
1F
1D
0C
1B
1A
1@
0?
1>
1K
1J
1I
0G
0D
0B
0@
1L
0K
0L
#960000
0#
09
0:
#975000
1#
19
1:
1e"
1?
0>
1@
#990000
0#
09
0:
