moore_peaje/moore_peaje.vhd/simulation/qsim/moore_peaje.msim.vcd
$comment
	File created using the following command:
		vcd file moore_peaje.msim.vcd -direction
$end
$date
	Tue May 14 21:10:04 2024
$end
$version
	ModelSim Version 10.1d
$end
$timescale
	1ps
$end
$scope module moore_peaje_vlg_vec_tst $end
$var reg 1 ! clk $end
$var reg 1 " reset $end
$var reg 1 # tx $end
$var wire 1 $ alarma $end
$var wire 1 % f $end
$var wire 1 & led_rojo $end
$var wire 1 ' sema_f $end
$var wire 1 ( sema_i $end
$var wire 1 ) talan_f $end
$var wire 1 * talan_i $end
$var wire 1 + sampler $end
$scope module i1 $end
$var wire 1 , gnd $end
$var wire 1 - vcc $end
$var wire 1 . unknown $end
$var tri1 1 / devclrn $end
$var tri1 1 0 devpor $end
$var tri1 1 1 devoe $end
$var wire 1 2 talan_i~output_o $end
$var wire 1 3 talan_f~output_o $end
$var wire 1 4 sema_i~output_o $end
$var wire 1 5 sema_f~output_o $end
$var wire 1 6 led_rojo~output_o $end
$var wire 1 7 alarma~output_o $end
$var wire 1 8 f~output_o $end
$var wire 1 9 clk~input_o $end
$var wire 1 : clk~inputclkctrl_outclk $end
$var wire 1 ; tx~input_o $end
$var wire 1 < estado_siguiente.vehiculo_detectado~0_combout $end
$var wire 1 = reset~input_o $end
$var wire 1 > reset~inputclkctrl_outclk $end
$var wire 1 ? estado_anterior.vehiculo_detectado~q $end
$var wire 1 @ Selector2~0_combout $end
$var wire 1 A estado_anterior.salida_noaprobada~q $end
$var wire 1 B WideOr2~combout $end
$var wire 1 C estado_anterior.salida_aprobada~q $end
$var wire 1 D estado_anterior.reinicio_sistema~feeder_combout $end
$var wire 1 E estado_anterior.reinicio_sistema~q $end
$var wire 1 F estado_anterior.inicio~0_combout $end
$var wire 1 G estado_anterior.inicio~q $end
$var wire 1 H WideOr0~combout $end
$upscope $end
$upscope $end
$enddefinitions $end
#0
$dumpvars
0!
0"
0#
0$
0%
0&
0'
1(
0)
1*
x+
0,
1-
x.
1/
10
11
12
03
14
05
06
07
08
09
0:
0;
0<
0=
0>
0?
0@
0A
0B
0C
0D
0E
1F
0G
1H
$end
#10000
1#
1;
0+
1<
#15000
1!
19
1:
1+
#30000
0!
09
0:
0+
#45000
1!
19
1:
1+
#50000
0#
0;
0+
0<
#60000
0!
09
0:
1+
#75000
1!
19
1:
0+
#90000
0!
09
0:
1+
#100000
1#
1;
0+
1<
#105000
1!
19
1:
1+
#120000
0!
09
0:
0+
#135000
1!
19
1:
1+
#140000
0#
0;
0+
0<
#150000
0!
09
0:
1+
#165000
1!
19
1:
0+
#180000
0!
09
0:
1+
#195000
1!
19
1:
0+
#210000
0!
09
0:
1+
#225000
1!
19
1:
0+
#240000
0!
09
0:
1+
#255000
1!
19
1:
0+
#270000
0!
09
0:
1+
#285000
1!
19
1:
0+
#300000
0!
09
0:
1+
#315000
1!
19
1:
0+
#330000
0!
09
0:
1+
#345000
1!
19
1:
0+
#360000
0!
09
0:
1+
#375000
1!
19
1:
0+
#390000
0!
09
0:
1+
#405000
1!
19
1:
0+
#420000
0!
09
0:
1+
#435000
1!
19
1:
0+
#450000
0!
09
0:
1+
#465000
1!
19
1:
0+
#480000
0!
09
0:
1+
#495000
1!
19
1:
0+
#510000
0!
09
0:
1+
#525000
1!
19
1:
0+
#540000
0!
09
0:
1+
#555000
1!
19
1:
0+
#570000
0!
09
0:
1+
#585000
1!
19
1:
0+
#600000
0!
09
0:
1+
#615000
1!
19
1:
0+
#630000
0!
09
0:
1+
#645000
1!
19
1:
0+
#660000
0!
09
0:
1+
#675000
1!
19
1:
0+
#690000
0!
09
0:
1+
#705000
1!
19
1:
0+
#720000
0!
09
0:
1+
#735000
1!
19
1:
0+
#750000
0!
09
0:
1+
#765000
1!
19
1:
0+
#780000
0!
09
0:
1+
#795000
1!
19
1:
0+
#810000
0!
09
0:
1+
#825000
1!
19
1:
0+
#840000
0!
09
0:
1+
#855000
1!
19
1:
0+
#870000
0!
09
0:
1+
#885000
1!
19
1:
0+
#900000
0!
09
0:
1+
#915000
1!
19
1:
0+
#930000
0!
09
0:
1+
#945000
1!
19
1:
0+
#960000
0!
09
0:
1+
#975000
1!
19
1:
0+
#990000
0!
09
0:
1+
